<?xml version="1.0" encoding="utf-8"?>
<!-- Generator: Adobe Illustrator 19.2.1, SVG Export Plug-In . SVG Version: 6.00 Build 0)  -->
<svg version="1.1" id="Layer_1" xmlns="http://www.w3.org/2000/svg" xmlns:xlink="http://www.w3.org/1999/xlink" x="0px" y="0px"
	 viewBox="0 0 140 140" style="enable-background:new 0 0 140 140;" xml:space="preserve">
<style type="text/css">
	.st0{fill:#9C9EA1;}
</style>
<g>
	<g>
		<path class="st0" d="M70,2c37.5,0,68,30.5,68,68c0,37.5-30.5,68-68,68c-37.5,0-68-30.5-68-68C2,32.5,32.5,2,70,2 M70,0
			C31.3,0,0,31.3,0,70c0,38.7,31.3,70,70,70c38.7,0,70-31.3,70-70C140,31.3,108.7,0,70,0L70,0z"/>
	</g>
	<g>
		<path class="st0" d="M69.4,80.5c10.4,0,18.9-8.5,18.9-18.9c0-10.4-8.5-18.9-18.9-18.9c-10.4,0-18.9,8.5-18.9,18.9
			C50.5,72,59,80.5,69.4,80.5z M69.4,44.6c9.3,0,16.9,7.6,16.9,16.9c0,9.3-7.6,16.9-16.9,16.9s-16.9-7.6-16.9-16.9
			C52.5,52.2,60.1,44.6,69.4,44.6z"/>
		<path class="st0" d="M93.5,61.5c0-5.2-1.6-10-4.6-14.2l0.3-0.2c0.4-0.4,0.5-1,0.1-1.4c-0.4-0.4-1-0.5-1.4-0.1l-2.2,2
			c-0.4,0.4-0.5,1-0.1,1.4c0.2,0.2,0.5,0.3,0.8,0.3c0.2,0,0.5-0.1,0.7-0.2l0.5-0.4c2.7,3.8,4.1,8.2,4.1,12.8
			c0,12.2-9.9,22.1-22.1,22.1c-5.7,0-11.1-2.2-15.2-6.1l0.6-0.5c0.4-0.4,0.5-1,0.1-1.4c-0.4-0.4-1-0.5-1.4-0.1l-2.6,2.2
			c-0.4,0.4-0.5,1-0.1,1.4c0.2,0.2,0.5,0.4,0.8,0.4c0.2,0,0.5-0.1,0.6-0.2l0.5-0.4c4.3,4.2,9.9,6.6,15.9,6.8v3.8c0,0.6,0.4,1,1,1
			c3,0,5,1.7,6.1,3H63.3c0.6-0.8,1.6-1.7,2.9-2.3c0.5-0.2,0.7-0.8,0.5-1.3c-0.2-0.5-0.8-0.7-1.3-0.5c-3.3,1.5-4.7,4.6-4.8,4.7
			c-0.1,0.3-0.1,0.7,0.1,1c0.2,0.3,0.5,0.5,0.8,0.5h16c0.3,0,0.7-0.2,0.9-0.5c0.2-0.3,0.2-0.7,0-1c-0.1-0.2-2.6-4.9-7.9-5.5v-2.8
			C83.3,85,93.5,74.5,93.5,61.5z"/>
	</g>
</g>
</svg>
