<?xml version="1.0" encoding="utf-8"?>
<!-- Generator: Adobe Illustrator 19.2.1, SVG Export Plug-In . SVG Version: 6.00 Build 0)  -->
<svg version="1.1" id="Layer_1" xmlns="http://www.w3.org/2000/svg" xmlns:xlink="http://www.w3.org/1999/xlink" x="0px" y="0px"
	 viewBox="0 0 140 140" style="enable-background:new 0 0 140 140;" xml:space="preserve">
<style type="text/css">
	.st0{fill:#9C9EA1;}
</style>
<g>
	<g>
		<path class="st0" d="M70,2c37.5,0,68,30.5,68,68c0,37.5-30.5,68-68,68c-37.5,0-68-30.5-68-68C2,32.5,32.5,2,70,2 M70,0
			C31.3,0,0,31.3,0,70c0,38.7,31.3,70,70,70c38.7,0,70-31.3,70-70C140,31.3,108.7,0,70,0L70,0z"/>
	</g>
</g>
<g>
	<path class="st0" d="M83.2,63.4c0-11-9-20-20-20c-11,0-20,9-20,20c0,11,9,20,20,20C74.3,83.4,83.2,74.4,83.2,63.4z M63.2,81.4
		c-9.9,0-18-8.1-18-18c0-9.9,8.1-18,18-18s18,8.1,18,18C81.2,73.3,73.2,81.4,63.2,81.4z"/>
	<path class="st0" d="M59.7,49.8c-6.1,1.6-10.4,7.2-10.4,13.5c0,2.5,0.6,4.9,1.9,7c0.2,0.3,0.5,0.5,0.9,0.5c0.2,0,0.3,0,0.5-0.1
		c0.5-0.3,0.6-0.9,0.4-1.4c-1-1.8-1.6-3.9-1.6-6c0-5.5,3.7-10.2,8.9-11.6c0.5-0.1,0.9-0.7,0.7-1.2C60.8,50,60.2,49.7,59.7,49.8z"/>
	<path class="st0" d="M95.7,89.2L84.2,77.7c-1.1-1.1-3.1-1.1-4.2,0l-2.1,2.1c-1.2,1.2-1.2,3.1,0,4.2l11.5,11.5
		c0.7,0.7,1.8,1.1,2.8,1.1c0.5,0,1.1-0.1,1.5-0.3l0.2-0.1l2.6-2.6l0.1-0.2C97.1,92.1,96.7,90.2,95.7,89.2z M94.7,92.5l-2,2
		c-0.6,0.2-1.5,0-2-0.4L79.2,82.6c-0.4-0.4-0.4-1,0-1.4l2.1-2.1c0.2-0.2,0.4-0.3,0.7-0.3c0.3,0,0.5,0.1,0.7,0.3l11.5,11.5
		C94.7,91,94.9,91.9,94.7,92.5z"/>
</g>
</svg>
