<?xml version="1.0" encoding="utf-8"?>
<!-- Generator: Adobe Illustrator 19.2.1, SVG Export Plug-In . SVG Version: 6.00 Build 0)  -->
<svg version="1.1" id="Layer_1" xmlns="http://www.w3.org/2000/svg" xmlns:xlink="http://www.w3.org/1999/xlink" x="0px" y="0px"
	 viewBox="0 0 140 140" style="enable-background:new 0 0 140 140;" xml:space="preserve">
<style type="text/css">
	.st0{fill:#9C9EA1;}
</style>
<g>
	<g>
		<path class="st0" d="M70,2c37.5,0,68,30.5,68,68c0,37.5-30.5,68-68,68c-37.5,0-68-30.5-68-68C2,32.5,32.5,2,70,2 M70,0
			C31.3,0,0,31.3,0,70c0,38.7,31.3,70,70,70c38.7,0,70-31.3,70-70C140,31.3,108.7,0,70,0L70,0z"/>
	</g>
	<g>
		<path class="st0" d="M69.1,95.4c0.2,0.3,0.6,0.4,0.9,0.4c0.4,0,0.7-0.2,0.9-0.4c0.4-0.5,10.7-12.2,16.3-25.2
			c1.2-2.6,1.9-5.4,1.9-8.2c0-10.5-8.6-19.1-19.2-19.1c-10.6,0-19.2,8.6-19.2,19.1c0,2.9,0.6,5.6,1.8,8.2
			C58.3,83.2,68.7,94.9,69.1,95.4z M70,45.5c9.2,0,16.7,7.4,16.7,16.6c0,2.5-0.5,4.8-1.6,7.1c-4.5,10.4-12.3,20.2-15,23.5
			c-2.7-3.2-10.6-13.1-15.2-23.5c-1.1-2.2-1.6-4.6-1.6-7.1C53.3,52.9,60.8,45.5,70,45.5z"/>
		<path class="st0" d="M70,71c5,0,9.1-4.1,9.1-9.1c0-5-4.1-9.1-9.1-9.1c-5,0-9.1,4.1-9.1,9.1C60.9,66.9,65,71,70,71z M70,55.2
			c3.6,0,6.6,3,6.6,6.6c0,3.6-3,6.6-6.6,6.6c-3.6,0-6.6-3-6.6-6.6C63.4,58.2,66.4,55.2,70,55.2z"/>
	</g>
</g>
</svg>
